{
	"id": "fac08ff6-0ed4-4995-9945-1b8df27771f7",
	"name": "Production",
	"values": [
		{
			"key": "baseUrl",
			"value": "http://production.eba-hrqazcij.us-east-1.elasticbeanstalk.com/",
			"enabled": true
		}
	],
	"_postman_variable_scope": "environment",
	"_postman_exported_at": "2024-06-19T15:33:16.066Z",
	"_postman_exported_using": "Postman/10.24.26"
}